<svg id="Atoms_Selectors_Selected" data-name="Atoms/ Selectors/ Selected" xmlns="http://www.w3.org/2000/svg" width="134" height="134" viewBox="0 0 134 134">
  <circle id="Oval" cx="67" cy="67" r="67" transform="translate(0 0)" fill="#4e98ff"/>
  <path id="Tick_Right" data-name="Tick Right" d="M47.3,1.439a4.914,4.914,0,1,1,6.95,6.95L24.769,37.873a4.914,4.914,0,0,1-6.95,0L1.439,21.493a4.914,4.914,0,1,1,6.95-6.95L21.294,27.449Z" transform="translate(38.985 47.339)" fill="#fff"/>
</svg>
